<?xml version="1.0" encoding="utf-8"?>
<!-- Generator: Adobe Illustrator 16.0.0, SVG Export Plug-In . SVG Version: 6.00 Build 0)  -->
<!DOCTYPE svg PUBLIC "-//W3C//DTD SVG 1.1//EN" "http://www.w3.org/Graphics/SVG/1.1/DTD/svg11.dtd">
<svg version="1.1" id="Layer_1" 
  xmlns="http://www.w3.org/2000/svg" 
  xmlns:xlink="http://www.w3.org/1999/xlink" x="0px" y="0px" width="100%" height="100%" viewBox="0 0 20 20" enable-background="new 0 0 17.008 17.008" xml:space="preserve">
  <path d="M8.504,17.006C3.815,17.006,0,13.191,0,8.502c0-4.689,3.815-8.503,8.504-8.503c4.689,0,8.504,3.814,8.504,8.503
	C17.008,13.191,13.193,17.006,8.504,17.006z M8.504,0.499C4.09,0.499,0.5,4.089,0.5,8.502s3.59,8.004,8.004,8.004
	c4.413,0,8.004-3.591,8.004-8.004S12.917,0.499,8.504,0.499z"/>
  <g>
    <polygon points="7.931,3.218 4.987,3.218 4.987,5.487 7.931,5.487 8.58,4.354 	"/>
  </g>
  <g>
    <polygon points="9.404,6.021 4.987,6.021 4.987,8.292 9.404,8.292 10.054,7.156 	"/>
  </g>
  <g>
    <polygon points="10.877,8.823 4.987,8.823 4.987,11.094 10.877,11.094 11.525,9.958 	"/>
  </g>
  <g>
    <polygon points="12.348,11.627 4.987,11.627 4.987,13.896 12.348,13.896 12.997,12.761 	"/>
  </g>
</svg>
