<?xml version="1.0" encoding="utf-8"?>
<!-- Generator: Adobe Illustrator 16.0.0, SVG Export Plug-In . SVG Version: 6.00 Build 0)  -->
<!DOCTYPE svg PUBLIC "-//W3C//DTD SVG 1.1//EN" "http://www.w3.org/Graphics/SVG/1.1/DTD/svg11.dtd">
<svg version="1.1" id="Layer_1" 
  xmlns="http://www.w3.org/2000/svg" 
  xmlns:xlink="http://www.w3.org/1999/xlink" x="0px" y="0px" width="100%" height="100%" viewBox="0 0 20 20" enable-background="new 0 0 17.008 17.008" xml:space="preserve">
  <path d="M8.504,17.006C3.815,17.006,0,13.192,0,8.503s3.815-8.504,8.504-8.504c4.689,0,8.504,3.815,8.504,8.504
	S13.193,17.006,8.504,17.006z M8.504,0.499C4.09,0.499,0.5,4.089,0.5,8.503s3.59,8.003,8.004,8.003c4.413,0,8.004-3.59,8.004-8.003
	S12.917,0.499,8.504,0.499z"/>
  <path d="M10.872,7.696c-0.243-1.397-0.804-2.493-1.339-3.271c-0.205-0.34-0.74-0.948-1.008-1.204H8.513
	C8.501,3.197,8.489,3.197,8.477,3.197c-0.037,0-0.073,0.036-0.073,0.073v0.012C8.44,3.732,8.44,4.911,7.613,6.261
	C6.969,7.307,6.337,8.353,6.13,9.459c-0.061,0.314-0.098,0.656-0.098,0.996c0,1.558,0.718,2.896,1.764,3.525
	c0.121,0.074,0.206,0.123,0.291,0.16c0.013,0,0.025,0.012,0.037,0.012c0.036,0,0.073-0.037,0.073-0.074
	c0-0.022-0.012-0.035-0.024-0.049c-0.414-0.4-0.693-1.166-0.693-2.09c0-1.873,0.936-2.822,0.936-2.822s1.531,1.059,0.79,3.064v0.023
	c0,0.037,0.036,0.073,0.073,0.073h0.012c0.486-0.108,1.082-1.081,1.082-1.081C10.822,10.445,11.152,9.351,10.872,7.696"/>
</svg>
