<?xml version="1.0" encoding="utf-8"?>
<!-- Generator: Adobe Illustrator 16.0.0, SVG Export Plug-In . SVG Version: 6.00 Build 0)  -->
<!DOCTYPE svg PUBLIC "-//W3C//DTD SVG 1.1//EN" "http://www.w3.org/Graphics/SVG/1.1/DTD/svg11.dtd">
<svg version="1.1" id="Layer_1" 
  xmlns="http://www.w3.org/2000/svg" 
  xmlns:xlink="http://www.w3.org/1999/xlink" x="0px" y="0px" width="100%" height="100%" viewBox="0 0 26 26" enable-background="new 0 0 25.512 25.512" xml:space="preserve">
  <g>
    <rect x="15.707" y="6.036" width="2.869" height="3.317"/>
    <rect x="11.439" y="12.775" width="8.037" height="0.848"/>
    <rect x="12.337" y="6.036" width="2.87" height="3.317"/>
    <path d="M12.756-0.001C5.711-0.001,0,5.71,0,12.754C0,19.799,5.711,25.51,12.756,25.51s12.756-5.711,12.756-12.756
		C25.512,5.71,19.801-0.001,12.756-0.001z M11.837,5.786c0-0.138,0.112-0.25,0.25-0.25h6.739c0.138,0,0.25,0.112,0.25,0.25v6.09
		h-0.5V9.854h-2.869v2.022h-0.5V9.854h-2.87v2.022h-0.5V5.786z M13.222,19.725c0,0.138-0.112,0.25-0.25,0.25H5.786
		c-0.138,0-0.25-0.112-0.25-0.25V7.588c0-0.138,0.112-0.25,0.25-0.25h4.966v0.5H6.036v11.637h6.686v-4.271h0.5V19.725z M8.72,13.879
		c0,0.138-0.112,0.25-0.25,0.25H7.995c-0.1,0.258-0.348,0.443-0.641,0.443c-0.381,0-0.69-0.311-0.69-0.691s0.31-0.691,0.69-0.691
		c0.292,0,0.539,0.184,0.641,0.439H8.47C8.608,13.629,8.72,13.741,8.72,13.879z M19.976,13.872c0,0.138-0.112,0.25-0.25,0.25h-8.537
		c-0.138,0-0.25-0.112-0.25-0.25v-1.348c0-0.138,0.112-0.25,0.25-0.25h8.537c0.138,0,0.25,0.112,0.25,0.25V13.872z"/>
  </g>
</svg>
